%YAML 1.1
%TAG !u! tag:unity3d.com,2011:
--- !u!114 &11400000
MonoBehaviour:
  m_ObjectHideFlags: 0
  m_CorrespondingSourceObject: {fileID: 0}
  m_PrefabInstance: {fileID: 0}
  m_PrefabAsset: {fileID: 0}
  m_GameObject: {fileID: 0}
  m_Enabled: 1
  m_EditorHideFlags: 0
  m_Script: {fileID: 11500000, guid: bbb281ee3bf0b054c82ac2347e9e782c, type: 3}
  m_Name: Built In Data
  m_EditorClassIdentifier: 
  m_GroupName: Built In Data
  m_Data:
    m_SerializedData: []
  m_GUID: 3c9da0a555d916d4d91865f9209b3a96
  m_SerializeEntries:
  - m_GUID: Resources
    m_Address: Resources
    m_ReadOnly: 1
    m_SerializedLabels: []
  - m_GUID: EditorSceneList
    m_Address: EditorSceneList
    m_ReadOnly: 1
    m_SerializedLabels: []
  m_ReadOnly: 1
  m_Settings: {fileID: 11400000, guid: 3b14e7bf6c62f984690229b67c8e1ae7, type: 2}
  m_SchemaSet:
    m_Schemas:
    - {fileID: 11400000, guid: a5f0f7320edfbce47983ea521354adfe, type: 2}
